.Xil/Vivado-9708-DESKTOP-N6B5F4R/hw_ila_data_1/zip_work/waveform.vcd
$date
        2018-Dec-03 17:42:48
$end
$version
        Vivado v2018.2 (64-bit)
$end
$timescale
        1ps
$end
$scope module dut $end
$var reg 32 " openmips0/id0/pc_plus_4 [31:0] $end
$var reg 32 B openmips0/id0/reg1_o [31:0] $end
$var reg 32 b openmips0/pc_reg0/new_pc [31:0] $end
$var reg 32 $" openmips0/pc_reg0/branch_target_address_i [31:0] $end
$var reg 32 D" inst [31:0] $end
$var reg 32 d" inst_addr [31:0] $end
$var reg 32 &# ram_data_i [31:0] $end
$var reg 32 F# ram_addr [31:0] $end
$var reg 4 f# ram_sel [3:0] $end
$var reg 32 j# ram_data_o [31:0] $end
$var reg 8 ,$ mmu_memory_version1/directUart/ext_uart_rx [7:0] $end
$var reg 8 4$ mmu_memory_version1/directUart/ext_uart_tx [7:0] $end
$var reg 1 <$ openmips0/pc_reg0/branch_flag_i $end
$var reg 1 =$ u_ila_0_ext_uart_busy $end
$var reg 1 >$ u_ila_0_ext_uart_ready $end
$var reg 1 ?$ pause_signal $end
$var reg 1 @$ ram_we $end
$var reg 1 A$ _TRIGGER $end
$var reg 1 B$ _WINDOW $end
$var reg 1 C$ _GAP $end
$upscope $end
$enddefinitions $end
#0
$dumpvars
b10000000000000000001011000000000 "
b10111111110100000000000000000000 B
b0 b
b0 $"
b110001000010000000000000000010 D"
b10000000000000000001011000000000 d"
b1 &#
b0 F#
b1111 f#
b0 j#
b10000000 ,$
b111 4$
0<$
0=$
0>$
0?$
0@$
0A$
1B$
0C$
$end
#1
b10000000000000000001011000000100 "
b10001111100100000000000000000000 B
b10101000000000000000000000011 D"
b10000000000000000001011000000100 d"
#2
b1 B
b10111111110100000000001111111100 F#
b1 f#
#3
b10000000000000000001011000001000 "
b0 B
b0 D"
b10000000000000000001011000001000 d"
b0 F#
b1111 f#
#4
b10000000000000000001011000001100 "
b1000000000000000010101111111 D"
b10000000000000000001011000001100 d"
#5
b10000000000000000001011000010000 "
b10000000000000000001010111111100 $"
b0 D"
b10000000000000000001011000010000 d"
1<$
#6
b10000000000000000001011000010100 "
b0 $"
b10000001001010000000001111111100 D"
b10000000000000000001010111111100 d"
0<$
#7
b10000000000000000001011000000000 "
b10111111110100000000000000000000 B
b110001000010000000000000000010 D"
b10000000000000000001011000000000 d"
#8
b10000000000000000001011000000100 "
b10001111100100000000000000000000 B
b10101000000000000000000000011 D"
b10000000000000000001011000000100 d"
#9
b1 B
b10111111110100000000001111111100 F#
b1 f#
#10
b10000000000000000001011000001000 "
b0 B
b0 D"
b10000000000000000001011000001000 d"
b0 F#
b1111 f#
#11
b10000000000000000001011000001100 "
b1000000000000000010101111111 D"
b10000000000000000001011000001100 d"
#12
b10000000000000000001011000010000 "
b10000000000000000001010111111100 $"
b0 D"
b10000000000000000001011000010000 d"
1<$
#13
b10000000000000000001011000010100 "
b0 $"
b10000001001010000000001111111100 D"
b10000000000000000001010111111100 d"
0<$
#14
b10000000000000000001011000000000 "
b10111111110100000000000000000000 B
b110001000010000000000000000010 D"
b10000000000000000001011000000000 d"
#15
b10000000000000000001011000000100 "
b10001111100100000000000000000000 B
b10101000000000000000000000011 D"
b10000000000000000001011000000100 d"
#16
b1 B
b10111111110100000000001111111100 F#
b1 f#
#17
b10000000000000000001011000001000 "
b0 B
b0 D"
b10000000000000000001011000001000 d"
b0 F#
b1111 f#
#18
b10000000000000000001011000001100 "
b1000000000000000010101111111 D"
b10000000000000000001011000001100 d"
#19
b10000000000000000001011000010000 "
b10000000000000000001010111111100 $"
b0 D"
b10000000000000000001011000010000 d"
1<$
#20
b10000000000000000001011000010100 "
b0 $"
b10000001001010000000001111111100 D"
b10000000000000000001010111111100 d"
0<$
1>$
#21
b10000000000000000001011000000000 "
b10111111110100000000000000000000 B
b110001000010000000000000000010 D"
b10000000000000000001011000000000 d"
#22
b10000000000000000001011000000100 "
b10001111100100000000000000000000 B
b10101000000000000000000000011 D"
b10000000000000000001011000000100 d"
#23
b11 B
b11 &#
b10111111110100000000001111111100 F#
b1 f#
#24
b10000000000000000001011000001000 "
b10 B
b10000000000000000001011000010100 $"
b0 D"
b10000000000000000001011000001000 d"
b0 F#
b1111 f#
1<$
#25
b10000000000000000001011000001100 "
b0 B
b0 $"
b111100000010011011111111010000 D"
b10000000000000000001011000010100 d"
0<$
#26
b10000000000000000001011000011000 "
b10000001001000100000001111111000 D"
b10000000000000000001011000011000 d"
#27
b10000000000000000001011000011100 "
b10111111110100000000000000000000 B
b11111000000000000000001000 D"
b10000000000000000001011000011100 d"
#28
b10000000000000000001011000100000 "
b10000000000000000001011001101000 B
b10000000000000000001011001101000 $"
b0 D"
b10000000000000000001011000100000 d"
1<$
#29
b10000000000000000001011000100100 "
b0 B
b0 $"
b101001100000100101 D"
b10000000000000000001011001101000 d"
b10000000 &#
b10111111110100000000001111111000 F#
b1 f#
0<$
0>$
#30
b10000000000000000001011001101100 "
b110010000100000000000011111111 D"
b10000000000000000001011001101100 d"
b1 &#
b0 F#
b1111 f#
#31
b10000000000000000001011001110000 "
b11111111111111111111111110110100 B
b110010011100110000000011111111 D"
b10000000000000000001011001110000 d"
#32
b10000000000000000001011001110100 "
b11111111111111111111111110000000 B
b110010010100100000000011111111 D"
b10000000000000000001011001110100 d"
#33
b10000000000000000001011001111000 "
b0 B
b110010001100010000000011111111 D"
b10000000000000000001011001111000 d"
#34
b10000000000000000001011001111100 "
b100000 B
b100110001000000100101 D"
b10000000000000000001011001111100 d"
#35
b10000000000000000001011010000000 "
b0 B
b100001001000000000 D"
b10000000000000000001011010000000 d"
#36
b10000000000000000001011010000100 "
b1000 B
b10100100001000000100101 D"
b10000000000000000001011010000100 d"
#37
b10000000000000000001011010001000 "
b1000000000000000 B
b100001001000000000 D"
b10000000000000000001011010001000 d"
#38
b10000000000000000001011010001100 "
b1000 B
b10100010001000000100101 D"
b10000000000000000001011010001100 d"
#39
b10000000000000000001011010010000 "
b100000000000000000000000 B
b100001001000000000 D"
b10000000000000000001011010010000 d"
#40
b10000000000000000001011010010100 "
b1000 B
b10100000001000000100101 D"
b10000000000000000001011010010100 d"
#41
b10000000000000000001011010011000 "
b10000000000000000010000000000000 B
b10001111101111110000000000000000 D"
b10000000000000000001011010011000 d"
#42
b10000000000000000001011010011100 "
b10000000011111111111111011101100 B
b10001111101100000000000000000100 D"
b10000000000000000001011010011100 d"
#43
b10000000000000000001011010100000 "
b10001111101100010000000000001000 D"
b10000000000000000001011010100000 d"
#44
b10000000000000000001011010100100 "
b10001111101100100000000000001100 D"
b10000000000000000001011010100100 d"
b10000000000000000001010010000100 &#
b10000000011111111111111011101100 F#
#45
b10000000000000000001011010101000 "
b10001111101100110000000000010000 D"
b10000000000000000001011010101000 d"
b0 &#
b10000000011111111111111011110000 F#
#46
b10000000000000000001011010101100 "
b100111101111010000000000010100 D"
b10000000000000000001011010101100 d"
b10000000011111111111111011110100 F#
#47
b10000000000000000001011010110000 "
b11111000000000000000001000 D"
b10000000000000000001011010110000 d"
b10000000011111111111111011111000 F#
#48
b10000000000000000001011010110100 "
b10000000000000000001010010000100 B
b10000000000000000001010010000100 $"
b0 D"
b10000000000000000001011010110100 d"
b10000000011111111111111011111100 F#
1<$
#49
b10000000000000000001011010111000 "
b0 B
b0 $"
b110100000001000000000000000110 D"
b10000000000000000001010010000100 d"
b1 &#
b0 F#
0<$
#50
b10000000000000000001010010001000 "
b1100000000000000010101110011 D"
b10000000000000000001010010001000 d"
#51
b10000000000000000001010010001100 "
b10000000000000000001010111001100 $"
b0 D"
b10000000000000000001010010001100 d"
1<$
#52
b10000000000000000001010010010000 "
b0 $"
b111100000010011011111111010000 D"
b10000000000000000001010111001100 d"
0<$
#53
b10000000000000000001010111010000 "
b10000001001010000000001111111100 D"
b10000000000000000001010111010000 d"
#54
b10000000000000000001010111010100 "
b10111111110100000000000000000000 B
b110001000010000000000000000001 D"
b10000000000000000001010111010100 d"
#55
b10000000000000000001010111011000 "
b10101000000000000000000000011 D"
b10000000000000000001010111011000 d"
#56
b1 B
b10111111110100000000001111111100 F#
b1 f#
#57
b10000000000000000001010111011100 "
b10000000000000000001010111101000 $"
b0 D"
b10000000000000000001010111011100 d"
b0 F#
b1111 f#
1<$
#58
b10000000000000000001010111100000 "
b0 B
b0 $"
b111100000010011011111111010000 D"
b10000000000000000001010111101000 d"
0<$
#59
b10000000000000000001010111101100 "
b10100001001001000000001111111000 D"
b10000000000000000001010111101100 d"
#60
b10000000000000000001010111110000 "
b10111111110100000000000000000000 B
b11111000000000000000001000 D"
b10000000000000000001010111110000 d"
#61
b10000000000000000001010111110100 "
b10000000000000000001010010010000 B
b10000000000000000001010010010000 $"
b0 D"
b10000000000000000001010111110100 d"
1<$
#62
b10000000000000000001010111111000 "
b0 B
b0 $"
b10000001101000000100101 D"
b10000000000000000001010010010000 d"
b0 &#
b10111111110100000000001111111000 F#
b1 f#
b110000001100000011000000110 j#
b110 4$
0<$
1=$
1@$
#63
b10000000000000000001010010010100 "
b10000000000000000010000010110100 B
b111100000111111000000001111111 D"
b10000000000000000001010010010100 d"
b0 F#
b1111 f#
b0 j#
0@$
#64
b10000000000000000001010010011000 "
b0 B
b100111111111110000000000000000 D"
b10000000000000000001010010011000 d"
#65
b10000000000000000001010010011100 "
b10000000011111110000000000000000 B
b10101111111000100000000001111000 D"
b10000000000000000001010010011100 d"
#66
b10000000000000000001010010100000 "
b10101111111111010000000001111100 D"
b10000000000000000001010010100000 d"
#67
b10000000000000000001010010100100 "
b10001111111000010000000000000000 D"
b10000000000000000001010010100100 d"
#68
b10000000000000000001010010101000 "
b10001111111000100000000000000100 D"
b10000000000000000001010010101000 d"
b10000000011111110000000001111000 F#
b10000000000000000010000010110100 j#
1@$
#69
b10000000000000000001010010101100 "
b10001111111000110000000000001000 D"
b10000000000000000001010010101100 d"
b10000000011111110000000001111100 F#
b10000000011111111111111100000000 j#
#70
b10000000000000000001010010110000 "
b10001111111001000000000000001100 D"
b10000000000000000001010010110000 d"
b10000000011111110000000000000000 F#
b0 j#
0@$
#71
b10000000000000000001010010110100 "
b10001111111001010000000000010000 D"
b10000000000000000001010010110100 d"
b10000000011111110000000000000100 F#
#72
b10000000000000000001010010111000 "
b10001111111001100000000000010100 D"
b10000000000000000001010010111000 d"
b10000000011111110000000000001000 F#
#73
b10000000000000000001010010111100 "
b10001111111001110000000000011000 D"
b10000000000000000001010010111100 d"
b10000000011111110000000000001100 F#
#74
b10000000000000000001010011000000 "
b10001111111010000000000000011100 D"
b10000000000000000001010011000000 d"
b10000000011111110000000000010000 F#
#75
b10000000000000000001010011000100 "
b10001111111010010000000000100000 D"
b10000000000000000001010011000100 d"
b10000000011111110000000000010100 F#
#76
b10000000000000000001010011001000 "
b10001111111010100000000000100100 D"
b10000000000000000001010011001000 d"
b10000000011111110000000000011000 F#
#77
b10000000000000000001010011001100 "
b10001111111010110000000000101000 D"
b10000000000000000001010011001100 d"
b10000000011111110000000000011100 F#
#78
b10000000000000000001010011010000 "
b10001111111011000000000000101100 D"
b10000000000000000001010011010000 d"
b10000000011111110000000000100000 F#
#79
b10000000000000000001010011010100 "
b10001111111011010000000000110000 D"
b10000000000000000001010011010100 d"
b10000000011111110000000000100100 F#
#80
b10000000000000000001010011011000 "
b10001111111011100000000000110100 D"
b10000000000000000001010011011000 d"
b10000000011111110000000000101000 F#
#81
b10000000000000000001010011011100 "
b10001111111011110000000000111000 D"
b10000000000000000001010011011100 d"
b10000000011111110000000000101100 F#
#82
b10000000000000000001010011100000 "
b10001111111100000000000000111100 D"
b10000000000000000001010011100000 d"
b10000000011111110000000000110000 F#
#83
b10000000000000000001010011100100 "
b10001111111100010000000001000000 D"
b10000000000000000001010011100100 d"
b10000000011111110000000000110100 F#
#84
b10000000000000000001010011101000 "
b10001111111100100000000001000100 D"
b10000000000000000001010011101000 d"
b10000000011111110000000000111000 F#
#85
b10000000000000000001010011101100 "
b10001111111100110000000001001000 D"
b10000000000000000001010011101100 d"
b10000000011111110000000000111100 F#
#86
b10000000000000000001010011110000 "
b10001111111101000000000001001100 D"
b10000000000000000001010011110000 d"
b10000000011111110000000001000000 F#
#87
b10000000000000000001010011110100 "
b10001111111101010000000001010000 D"
b10000000000000000001010011110100 d"
b10000000011111110000000001000100 F#
#88
b10000000000000000001010011111000 "
b10001111111101100000000001010100 D"
b10000000000000000001010011111000 d"
b10000000011111110000000001001000 F#
#89
b10000000000000000001010011111100 "
b10001111111101110000000001011000 D"
b10000000000000000001010011111100 d"
b10000000011111110000000001001100 F#
#90
b10000000000000000001010100000000 "
b10001111111110000000000001011100 D"
b10000000000000000001010100000000 d"
b10000000011111110000000001010000 F#
#91
b10000000000000000001010100000100 "
b10001111111110010000000001100000 D"
b10000000000000000001010100000100 d"
b10000000011111110000000001010100 F#
#92
b10000000000000000001010100001000 "
b10001111111111000000000001101100 D"
b10000000000000000001010100001000 d"
b10000000011111110000000001011000 F#
#93
b10000000000000000001010100001100 "
b10001111111111010000000001110000 D"
b10000000000000000001010100001100 d"
b10000000011111110000000001011100 F#
#94
b10000000000000000001010100010000 "
b10001111111111100000000001110100 D"
b10000000000000000001010100010000 d"
b10000000011111110000000001100000 F#
#95
b10000000000000000001010100010100 "
b111100000111111000000000000000 D"
b10000000000000000001010100010100 d"
b10000000011111110000000001101100 F#
#96
b10000000000000000001010100011000 "
b0 B
b100111111111110001010100101000 D"
b10000000000000000001010100011000 d"
b10000000011111110000000000000000 &#
b10000000011111110000000001110000 F#
#97
b10000000000000000001010100011100 "
b10000000000000000000000000000000 B
b0 D"
b10000000000000000001010100011100 d"
b10000000011111110000000001110100 F#
#98
b10000000000000000001010100100000 "
b0 B
b11010000000000000000001000 D"
b10000000000000000001010100100000 d"
b0 &#
b0 F#
#99
b10000000000000000001010100100100 "
b10000000000000000010000010110100 B
b10000000000000000010000010110100 $"
b0 D"
b10000000000000000001010100100100 d"
1<$
#100
b10000000000000000001010100101000 "
b0 B
b0 $"
b111100000010000000001000000000 D"
b10000000000000000010000010110100 d"
0<$
1A$
#101
b10000000000000000010000010111000 "
b100111101111011111111111111100 D"
b10000000000000000010000010111000 d"
#102
b10000000000000000010000010111100 "
b10000000011111110000000000000000 B
b10101111101010000000000000000000 D"
b10000000000000000010000010111100 d"
#103
b10000000000000000010000011000000 "
b10000000011111101111111111111100 B
b10001111101010010000000000000000 D"
b10000000000000000010000011000000 d"
#104
b10000000000000000010000011000100 "
b100101001010011111111111111111 D"
b10000000000000000010000011000100 d"
#105
b10000000000000000010000011001000 "
b100100001011000000000 B
b10101111101010010000000000000000 D"
b10000000000000000010000011001000 d"
b10000000011111101111111111111100 F#
b10000000000000000000000000 j#
1@$
#106
b10000000000000000000000000 B
b10000000000000000000000000 &#
b0 j#
0@$
#107
b10000000000000000010000011001100 "
b10000000011111101111111111111100 B
b10001111101010000000000000000000 D"
b10000000000000000010000011001100 d"
b0 &#
b0 F#
#108
b10000000000000000010000011010000 "
b10101000000001111111111111010 D"
b10000000000000000010000011010000 d"
#109
b10000000000000000010000011010100 "
b10000000000111101111111111111100 B
b10000000000000000010000010111100 $"
b0 D"
b10000000000000000010000011010100 d"
b10000000011111101111111111111100 F#
b1111111111111111111111111 j#
1<$
1@$
#110
b1111111111111111111111111 B
b1111111111111111111111111 &#
b0 j#
0@$
#111
b10000000000000000010000011011000 "
b0 B
b0 $"
b10101111101010000000000000000000 D"
b10000000000000000010000010111100 d"
b0 &#
b0 F#
0<$
#112
b10000000000000000010000011000000 "
b10000000011111101111111111111100 B
b10001111101010010000000000000000 D"
b10000000000000000010000011000000 d"
#113
b10000000000000000010000011000100 "
b100101001010011111111111111111 D"
b10000000000000000010000011000100 d"
#114
b10000000000000000010000011001000 "
b10000000000111101111111111111100 B
b10101111101010010000000000000000 D"
b10000000000000000010000011001000 d"
b10000000011111101111111111111100 F#
b1111111111111111111111111 j#
1@$
#115
b1111111111111111111111111 B
b1111111111111111111111111 &#
b0 j#
0@$
#116
b10000000000000000010000011001100 "
b10000000011111101111111111111100 B
b10001111101010000000000000000000 D"
b10000000000000000010000011001100 d"
b0 &#
b0 F#
#117
b10000000000000000010000011010000 "
b10101000000001111111111111010 D"
b10000000000000000010000011010000 d"
#118
b10000000000000000010000011010100 "
b10000000000111101111111111111100 B
b10000000000000000010000010111100 $"
b0 D"
b10000000000000000010000011010100 d"
b10000000011111101111111111111100 F#
b1111111111111111111111110 j#
1<$
1@$
#119
b1111111111111111111111110 B
b1111111111111111111111110 &#
b0 j#
0@$
#120
b10000000000000000010000011011000 "
b0 B
b0 $"
b10101111101010000000000000000000 D"
b10000000000000000010000010111100 d"
b0 &#
b0 F#
0<$
#121
b10000000000000000010000011000000 "
b10000000011111101111111111111100 B
b10001111101010010000000000000000 D"
b10000000000000000010000011000000 d"
#122
b10000000000000000010000011000100 "
b100101001010011111111111111111 D"
b10000000000000000010000011000100 d"
#123
b10000000000000000010000011001000 "
b10000000000111101111111111111100 B
b10101111101010010000000000000000 D"
b10000000000000000010000011001000 d"
b10000000011111101111111111111100 F#
b1111111111111111111111110 j#
1@$
#124
b1111111111111111111111110 B
b1111111111111111111111110 &#
b0 j#
0@$
#125
b10000000000000000010000011001100 "
b10000000011111101111111111111100 B
b10001111101010000000000000000000 D"
b10000000000000000010000011001100 d"
b0 &#
b0 F#
#126
b10000000000000000010000011010000 "
b10101000000001111111111111010 D"
b10000000000000000010000011010000 d"
#127
b10000000000000000010000011010100 "
b10000000000111101111111111111100 B
b10000000000000000010000010111100 $"
b0 D"
b10000000000000000010000011010100 d"
b10000000011111101111111111111100 F#
b1111111111111111111111101 j#
1<$
1@$
#128
b1111111111111111111111101 B
b1111111111111111111111101 &#
b0 j#
0@$
#129
b10000000000000000010000011011000 "
b0 B
b0 $"
b10101111101010000000000000000000 D"
b10000000000000000010000010111100 d"
b0 &#
b0 F#
0<$
#130
b10000000000000000010000011000000 "
b10000000011111101111111111111100 B
b10001111101010010000000000000000 D"
b10000000000000000010000011000000 d"
#131
b10000000000000000010000011000100 "
b100101001010011111111111111111 D"
b10000000000000000010000011000100 d"
#132
b10000000000000000010000011001000 "
b10000000000111101111111111111100 B
b10101111101010010000000000000000 D"
b10000000000000000010000011001000 d"
b10000000011111101111111111111100 F#
b1111111111111111111111101 j#
1@$
#133
b1111111111111111111111101 B
b1111111111111111111111101 &#
b0 j#
0@$
#134
b10000000000000000010000011001100 "
b10000000011111101111111111111100 B
b10001111101010000000000000000000 D"
b10000000000000000010000011001100 d"
b0 &#
b0 F#
#135
b10000000000000000010000011010000 "
b10101000000001111111111111010 D"
b10000000000000000010000011010000 d"
#136
b10000000000000000010000011010100 "
b10000000000111101111111111111100 B
b10000000000000000010000010111100 $"
b0 D"
b10000000000000000010000011010100 d"
b10000000011111101111111111111100 F#
b1111111111111111111111100 j#
1<$
1@$
#137
b1111111111111111111111100 B
b1111111111111111111111100 &#
b0 j#
0@$
#138
b10000000000000000010000011011000 "
b0 B
b0 $"
b10101111101010000000000000000000 D"
b10000000000000000010000010111100 d"
b0 &#
b0 F#
0<$
#139
b10000000000000000010000011000000 "
b10000000011111101111111111111100 B
b10001111101010010000000000000000 D"
b10000000000000000010000011000000 d"
#140
b10000000000000000010000011000100 "
b100101001010011111111111111111 D"
b10000000000000000010000011000100 d"
#141
b10000000000000000010000011001000 "
b10000000000111101111111111111100 B
b10101111101010010000000000000000 D"
b10000000000000000010000011001000 d"
b10000000011111101111111111111100 F#
b1111111111111111111111100 j#
1@$
#142
b1111111111111111111111100 B
b1111111111111111111111100 &#
b0 j#
0@$
#143
b10000000000000000010000011001100 "
b10000000011111101111111111111100 B
b10001111101010000000000000000000 D"
b10000000000000000010000011001100 d"
b0 &#
b0 F#
#144
b10000000000000000010000011010000 "
b10101000000001111111111111010 D"
b10000000000000000010000011010000 d"
#145
b10000000000000000010000011010100 "
b10000000000111101111111111111100 B
b10000000000000000010000010111100 $"
b0 D"
b10000000000000000010000011010100 d"
b10000000011111101111111111111100 F#
b1111111111111111111111011 j#
1<$
1@$
#146
b1111111111111111111111011 B
b1111111111111111111111011 &#
b0 j#
0@$
#147
b10000000000000000010000011011000 "
b0 B
b0 $"
b10101111101010000000000000000000 D"
b10000000000000000010000010111100 d"
b0 &#
b0 F#
0<$
#148
b10000000000000000010000011000000 "
b10000000011111101111111111111100 B
b10001111101010010000000000000000 D"
b10000000000000000010000011000000 d"
#149
b10000000000000000010000011000100 "
b100101001010011111111111111111 D"
b10000000000000000010000011000100 d"
#150
b10000000000000000010000011001000 "
b10000000000111101111111111111100 B
b10101111101010010000000000000000 D"
b10000000000000000010000011001000 d"
b10000000011111101111111111111100 F#
b1111111111111111111111011 j#
1@$
#151
b1111111111111111111111011 B
b1111111111111111111111011 &#
b0 j#
0@$
#152
b10000000000000000010000011001100 "
b10000000011111101111111111111100 B
b10001111101010000000000000000000 D"
b10000000000000000010000011001100 d"
b0 &#
b0 F#
#153
b10000000000000000010000011010000 "
b10101000000001111111111111010 D"
b10000000000000000010000011010000 d"
#154
b10000000000000000010000011010100 "
b10000000000111101111111111111100 B
b10000000000000000010000010111100 $"
b0 D"
b10000000000000000010000011010100 d"
b10000000011111101111111111111100 F#
b1111111111111111111111010 j#
1<$
1@$
#155
b1111111111111111111111010 B
b1111111111111111111111010 &#
b0 j#
0@$
#156
b10000000000000000010000011011000 "
b0 B
b0 $"
b10101111101010000000000000000000 D"
b10000000000000000010000010111100 d"
b0 &#
b0 F#
0<$
#157
b10000000000000000010000011000000 "
b10000000011111101111111111111100 B
b10001111101010010000000000000000 D"
b10000000000000000010000011000000 d"
#158
b10000000000000000010000011000100 "
b100101001010011111111111111111 D"
b10000000000000000010000011000100 d"
#159
b10000000000000000010000011001000 "
b10000000000111101111111111111100 B
b10101111101010010000000000000000 D"
b10000000000000000010000011001000 d"
b10000000011111101111111111111100 F#
b1111111111111111111111010 j#
1@$
#160
b1111111111111111111111010 B
b1111111111111111111111010 &#
b0 j#
0@$
#161
b10000000000000000010000011001100 "
b10000000011111101111111111111100 B
b10001111101010000000000000000000 D"
b10000000000000000010000011001100 d"
b0 &#
b0 F#
#162
b10000000000000000010000011010000 "
b10101000000001111111111111010 D"
b10000000000000000010000011010000 d"
#163
b10000000000000000010000011010100 "
b10000000000111101111111111111100 B
b10000000000000000010000010111100 $"
b0 D"
b10000000000000000010000011010100 d"
b10000000011111101111111111111100 F#
b1111111111111111111111001 j#
1<$
1@$
#164
b1111111111111111111111001 B
b1111111111111111111111001 &#
b0 j#
0@$
#165
b10000000000000000010000011011000 "
b0 B
b0 $"
b10101111101010000000000000000000 D"
b10000000000000000010000010111100 d"
b0 &#
b0 F#
0<$
#166
b10000000000000000010000011000000 "
b10000000011111101111111111111100 B
b10001111101010010000000000000000 D"
b10000000000000000010000011000000 d"
#167
b10000000000000000010000011000100 "
b100101001010011111111111111111 D"
b10000000000000000010000011000100 d"
#168
b10000000000000000010000011001000 "
b10000000000111101111111111111100 B
b10101111101010010000000000000000 D"
b10000000000000000010000011001000 d"
b10000000011111101111111111111100 F#
b1111111111111111111111001 j#
1@$
#169
b1111111111111111111111001 B
b1111111111111111111111001 &#
b0 j#
0@$
#170
b10000000000000000010000011001100 "
b10000000011111101111111111111100 B
b10001111101010000000000000000000 D"
b10000000000000000010000011001100 d"
b0 &#
b0 F#
#171
b10000000000000000010000011010000 "
b10101000000001111111111111010 D"
b10000000000000000010000011010000 d"
#172
b10000000000000000010000011010100 "
b10000000000111101111111111111100 B
b10000000000000000010000010111100 $"
b0 D"
b10000000000000000010000011010100 d"
b10000000011111101111111111111100 F#
b1111111111111111111111000 j#
1<$
1@$
#173
b1111111111111111111111000 B
b1111111111111111111111000 &#
b0 j#
0@$
#174
b10000000000000000010000011011000 "
b0 B
b0 $"
b10101111101010000000000000000000 D"
b10000000000000000010000010111100 d"
b0 &#
b0 F#
0<$
#175
b10000000000000000010000011000000 "
b10000000011111101111111111111100 B
b10001111101010010000000000000000 D"
b10000000000000000010000011000000 d"
#176
b10000000000000000010000011000100 "
b100101001010011111111111111111 D"
b10000000000000000010000011000100 d"
#177
b10000000000000000010000011001000 "
b10000000000111101111111111111100 B
b10101111101010010000000000000000 D"
b10000000000000000010000011001000 d"
b10000000011111101111111111111100 F#
b1111111111111111111111000 j#
1@$
#178
b1111111111111111111111000 B
b1111111111111111111111000 &#
b0 j#
0@$
#179
b10000000000000000010000011001100 "
b10000000011111101111111111111100 B
b10001111101010000000000000000000 D"
b10000000000000000010000011001100 d"
b0 &#
b0 F#
#180
b10000000000000000010000011010000 "
b10101000000001111111111111010 D"
b10000000000000000010000011010000 d"
#181
b10000000000000000010000011010100 "
b10000000000111101111111111111100 B
b10000000000000000010000010111100 $"
b0 D"
b10000000000000000010000011010100 d"
b10000000011111101111111111111100 F#
b1111111111111111111110111 j#
1<$
1@$
#182
b1111111111111111111110111 B
b1111111111111111111110111 &#
b0 j#
0@$
#183
b10000000000000000010000011011000 "
b0 B
b0 $"
b10101111101010000000000000000000 D"
b10000000000000000010000010111100 d"
b0 &#
b0 F#
0<$
#184
b10000000000000000010000011000000 "
b10000000011111101111111111111100 B
b10001111101010010000000000000000 D"
b10000000000000000010000011000000 d"
#185
b10000000000000000010000011000100 "
b100101001010011111111111111111 D"
b10000000000000000010000011000100 d"
#186
b10000000000000000010000011001000 "
b10000000000111101111111111111100 B
b10101111101010010000000000000000 D"
b10000000000000000010000011001000 d"
b10000000011111101111111111111100 F#
b1111111111111111111110111 j#
1@$
#187
b1111111111111111111110111 B
b1111111111111111111110111 &#
b0 j#
0@$
#188
b10000000000000000010000011001100 "
b10000000011111101111111111111100 B
b10001111101010000000000000000000 D"
b10000000000000000010000011001100 d"
b0 &#
b0 F#
#189
b10000000000000000010000011010000 "
b10101000000001111111111111010 D"
b10000000000000000010000011010000 d"
#190
b10000000000000000010000011010100 "
b10000000000111101111111111111100 B
b10000000000000000010000010111100 $"
b0 D"
b10000000000000000010000011010100 d"
b10000000011111101111111111111100 F#
b1111111111111111111110110 j#
1<$
1@$
#191
b1111111111111111111110110 B
b1111111111111111111110110 &#
b0 j#
0@$
#192
b10000000000000000010000011011000 "
b0 B
b0 $"
b10101111101010000000000000000000 D"
b10000000000000000010000010111100 d"
b0 &#
b0 F#
0<$
#193
b10000000000000000010000011000000 "
b10000000011111101111111111111100 B
b10001111101010010000000000000000 D"
b10000000000000000010000011000000 d"
#194
b10000000000000000010000011000100 "
b100101001010011111111111111111 D"
b10000000000000000010000011000100 d"
#195
b10000000000000000010000011001000 "
b10000000000111101111111111111100 B
b10101111101010010000000000000000 D"
b10000000000000000010000011001000 d"
b10000000011111101111111111111100 F#
b1111111111111111111110110 j#
1@$
#196
b1111111111111111111110110 B
b1111111111111111111110110 &#
b0 j#
0@$
#197
b10000000000000000010000011001100 "
b10000000011111101111111111111100 B
b10001111101010000000000000000000 D"
b10000000000000000010000011001100 d"
b0 &#
b0 F#
#198
b10000000000000000010000011010000 "
b10101000000001111111111111010 D"
b10000000000000000010000011010000 d"
#199
b10000000000000000010000011010100 "
b10000000000111101111111111111100 B
b10000000000000000010000010111100 $"
b0 D"
b10000000000000000010000011010100 d"
b10000000011111101111111111111100 F#
b1111111111111111111110101 j#
1<$
1@$
#200
b1111111111111111111110101 B
b1111111111111111111110101 &#
b0 j#
0@$
#201
b10000000000000000010000011011000 "
b0 B
b0 $"
b10101111101010000000000000000000 D"
b10000000000000000010000010111100 d"
b0 &#
b0 F#
0<$
#202
b10000000000000000010000011000000 "
b10000000011111101111111111111100 B
b10001111101010010000000000000000 D"
b10000000000000000010000011000000 d"
#203
b10000000000000000010000011000100 "
b100101001010011111111111111111 D"
b10000000000000000010000011000100 d"
#204
b10000000000000000010000011001000 "
b10000000000111101111111111111100 B
b10101111101010010000000000000000 D"
b10000000000000000010000011001000 d"
b10000000011111101111111111111100 F#
b1111111111111111111110101 j#
1@$
#205
b1111111111111111111110101 B
b1111111111111111111110101 &#
b0 j#
0@$
#206
b10000000000000000010000011001100 "
b10000000011111101111111111111100 B
b10001111101010000000000000000000 D"
b10000000000000000010000011001100 d"
b0 &#
b0 F#
#207
b10000000000000000010000011010000 "
b10101000000001111111111111010 D"
b10000000000000000010000011010000 d"
#208
b10000000000000000010000011010100 "
b10000000000111101111111111110100 B
b10000000000000000010000010111100 $"
b0 D"
b10000000000000000010000011010100 d"
b10000000011111101111111111111100 F#
b1111111111111111111110100 j#
1<$
1@$
#209
b1111111111111111111110100 B
b1111111111111111111110100 &#
b0 j#
0@$
#210
b10000000000000000010000011011000 "
b0 B
b0 $"
b10101111101010000000000000000000 D"
b10000000000000000010000010111100 d"
b0 &#
b0 F#
0<$
#211
b10000000000000000010000011000000 "
b10000000011111101111111111111100 B
b10001111101010010000000000000000 D"
b10000000000000000010000011000000 d"
#212
b10000000000000000010000011000100 "
b100101001010011111111111111111 D"
b10000000000000000010000011000100 d"
#213
b10000000000000000010000011001000 "
b10000000000111101111111111111100 B
b10101111101010010000000000000000 D"
b10000000000000000010000011001000 d"
b10000000011111101111111111111100 F#
b1111111111111111111110100 j#
1@$
#214
b1111111111111111111110100 B
b1111111111111111111110100 &#
b0 j#
0@$
#215
b10000000000000000010000011001100 "
b10000000011111101111111111111100 B
b10001111101010000000000000000000 D"
b10000000000000000010000011001100 d"
b0 &#
b0 F#
#216
b10000000000000000010000011010000 "
b10101000000001111111111111010 D"
b10000000000000000010000011010000 d"
#217
b10000000000000000010000011010100 "
b10000000000111101111111111110100 B
b10000000000000000010000010111100 $"
b0 D"
b10000000000000000010000011010100 d"
b10000000011111101111111111111100 F#
b1111111111111111111110011 j#
1<$
1@$
